%YAML 1.1
%TAG !u! tag:unity3d.com,2011:
--- !u!21 &2100000
Material:
  serializedVersion: 8
  m_ObjectHideFlags: 0
  m_CorrespondingSourceObject: {fileID: 0}
  m_PrefabInstance: {fileID: 0}
  m_PrefabAsset: {fileID: 0}
  m_Name: PolygonNature_Leaves_Willow_LOD_01_Yellow
  m_Shader: {fileID: -6465566751694194690, guid: 3d492456782aac74fbe0f9f6a22a5632,
    type: 3}
  m_ValidKeywords: []
  m_InvalidKeywords:
  - _ALPHATEST_ON
  - _EMISSION
  - _GLOSSYREFLECTIONS_OFF
  - _SPECULARHIGHLIGHTS_OFF
  m_LightmapFlags: 1
  m_EnableInstancingVariants: 0
  m_DoubleSidedGI: 0
  m_CustomRenderQueue: -1
  stringTagMap: {}
  disabledShaderPasses: []
  m_SavedProperties:
    serializedVersion: 3
    m_TexEnvs:
    - Texture2D_38206155:
        m_Texture: {fileID: 2800000, guid: e88ff96768daf224da52818f026ab171, type: 3}
        m_Scale: {x: 1, y: 1}
        m_Offset: {x: 0, y: 0}
    - Texture2D_896AB8C:
        m_Texture: {fileID: 2800000, guid: f27bd715d4b31fb429fa758cb6ae47d0, type: 3}
        m_Scale: {x: 1, y: 1}
        m_Offset: {x: 0, y: 0}
    - Texture2D_CAD82441:
        m_Texture: {fileID: 2800000, guid: 830fc72bc2c8075489b0a150dbd0ca1c, type: 3}
        m_Scale: {x: 1, y: 1}
        m_Offset: {x: 0, y: 0}
    - _BumpMap:
        m_Texture: {fileID: 0}
        m_Scale: {x: 1, y: 1}
        m_Offset: {x: 0, y: 0}
    - _ColorMask:
        m_Texture: {fileID: 2800000, guid: cb85d02347a64c14195e1ea916e67460, type: 3}
        m_Scale: {x: 1, y: 1}
        m_Offset: {x: 0, y: 0}
    - _DetailAlbedoMap:
        m_Texture: {fileID: 0}
        m_Scale: {x: 1, y: 1}
        m_Offset: {x: 0, y: 0}
    - _DetailMask:
        m_Texture: {fileID: 0}
        m_Scale: {x: 1, y: 1}
        m_Offset: {x: 0, y: 0}
    - _DetailNormalMap:
        m_Texture: {fileID: 0}
        m_Scale: {x: 1, y: 1}
        m_Offset: {x: 0, y: 0}
    - _EmissionMap:
        m_Texture: {fileID: 0}
        m_Scale: {x: 1, y: 1}
        m_Offset: {x: 0, y: 0}
    - _EmissionMask:
        m_Texture: {fileID: 2800000, guid: e88ff96768daf224da52818f026ab171, type: 3}
        m_Scale: {x: 1, y: 1}
        m_Offset: {x: 0, y: 0}
    - _MainTex:
        m_Texture: {fileID: 2800000, guid: 830fc72bc2c8075489b0a150dbd0ca1c, type: 3}
        m_Scale: {x: 1, y: 1}
        m_Offset: {x: 0, y: 0}
    - _MainTexture:
        m_Texture: {fileID: 2800000, guid: 830fc72bc2c8075489b0a150dbd0ca1c, type: 3}
        m_Scale: {x: 1, y: 1}
        m_Offset: {x: 0, y: 0}
    - _MetallicGlossMap:
        m_Texture: {fileID: 0}
        m_Scale: {x: 1, y: 1}
        m_Offset: {x: 0, y: 0}
    - _OcclusionMap:
        m_Texture: {fileID: 0}
        m_Scale: {x: 1, y: 1}
        m_Offset: {x: 0, y: 0}
    - _ParallaxMap:
        m_Texture: {fileID: 0}
        m_Scale: {x: 1, y: 1}
        m_Offset: {x: 0, y: 0}
    - _Texture2DAsset_A192B4FB_Out_0:
        m_Texture: {fileID: 2800000, guid: 2edd58f7c433e934db9029c375173b44, type: 3}
        m_Scale: {x: 1, y: 1}
        m_Offset: {x: 0, y: 0}
    - _texcoord:
        m_Texture: {fileID: 0}
        m_Scale: {x: 1, y: 1}
        m_Offset: {x: 0, y: 0}
    m_Ints: []
    m_Floats:
    - Vector1_7722A149: 0.05
    - Vector1_AADD838F: 10
    - Vector1_C1D16DBE: 0.5
    - Vector1_C39D93FF: 0.2
    - Vector1_CE098D07: 0.1
    - Vector1_EBB5CF27: 1
    - _BumpScale: 1
    - _Cutoff: 0.5
    - _DetailNormalMapScale: 1
    - _DstBlend: 0
    - _GlossMapScale: 1
    - _Glossiness: 0
    - _GlossyReflections: 0
    - _Metallic: 0
    - _Mode: 1
    - _OcclusionStrength: 1
    - _Parallax: 0.02
    - _Smoothness: 0
    - _SmoothnessTextureChannel: 0
    - _Specular: 0
    - _SpecularHighlights: 0
    - _SrcBlend: 1
    - _UVSec: 0
    - _ZWrite: 1
    - __dirty: 1
    m_Colors:
    - Color_369F793F: {r: 0.91372555, g: 0.7137255, b: 0.003921569, a: 0}
    - Color_FA85148A: {r: 0.7254902, g: 0.6784314, b: 0.06666667, a: 0}
    - _Color: {r: 0.454902, g: 0.37254903, b: 0.03529412, a: 1}
    - _ColorTint: {r: 0.454902, g: 0.37254903, b: 0.03529412, a: 0}
    - _Emission: {r: 0.43529415, g: 0.27450982, b: 0.25882354, a: 0}
    - _EmissionColor: {r: 0.43529415, g: 0.27450982, b: 0.25882354, a: 1}
  m_BuildTextureStacks: []
--- !u!114 &420683385368143367
MonoBehaviour:
  m_ObjectHideFlags: 11
  m_CorrespondingSourceObject: {fileID: 0}
  m_PrefabInstance: {fileID: 0}
  m_PrefabAsset: {fileID: 0}
  m_GameObject: {fileID: 0}
  m_Enabled: 1
  m_EditorHideFlags: 0
  m_Script: {fileID: 11500000, guid: d0353a89b1f911e48b9e16bdc9f2e058, type: 3}
  m_Name: 
  m_EditorClassIdentifier: 
  version: 5
