%YAML 1.1
%TAG !u! tag:unity3d.com,2011:
--- !u!1001 &3562685568635872827
PrefabInstance:
  m_ObjectHideFlags: 0
  serializedVersion: 2
  m_Modification:
    m_TransformParent: {fileID: 0}
    m_Modifications:
    - target: {fileID: 2340539943332355994, guid: d8465d48ad2f8c444a504580131a035f,
        type: 3}
      propertyPath: m_Name
      value: Player
      objectReference: {fileID: 0}
    - target: {fileID: 2340539943332355997, guid: d8465d48ad2f8c444a504580131a035f,
        type: 3}
      propertyPath: m_RootOrder
      value: 0
      objectReference: {fileID: 0}
    - target: {fileID: 2340539943332355997, guid: d8465d48ad2f8c444a504580131a035f,
        type: 3}
      propertyPath: m_LocalPosition.x
      value: -236.43
      objectReference: {fileID: 0}
    - target: {fileID: 2340539943332355997, guid: d8465d48ad2f8c444a504580131a035f,
        type: 3}
      propertyPath: m_LocalPosition.y
      value: 7.7
      objectReference: {fileID: 0}
    - target: {fileID: 2340539943332355997, guid: d8465d48ad2f8c444a504580131a035f,
        type: 3}
      propertyPath: m_LocalPosition.z
      value: 87.76
      objectReference: {fileID: 0}
    - target: {fileID: 2340539943332355997, guid: d8465d48ad2f8c444a504580131a035f,
        type: 3}
      propertyPath: m_LocalRotation.w
      value: 0.5441115
      objectReference: {fileID: 0}
    - target: {fileID: 2340539943332355997, guid: d8465d48ad2f8c444a504580131a035f,
        type: 3}
      propertyPath: m_LocalRotation.x
      value: -0
      objectReference: {fileID: 0}
    - target: {fileID: 2340539943332355997, guid: d8465d48ad2f8c444a504580131a035f,
        type: 3}
      propertyPath: m_LocalRotation.y
      value: 0.8390129
      objectReference: {fileID: 0}
    - target: {fileID: 2340539943332355997, guid: d8465d48ad2f8c444a504580131a035f,
        type: 3}
      propertyPath: m_LocalRotation.z
      value: -0
      objectReference: {fileID: 0}
    - target: {fileID: 2340539943332355997, guid: d8465d48ad2f8c444a504580131a035f,
        type: 3}
      propertyPath: m_LocalEulerAnglesHint.x
      value: 0
      objectReference: {fileID: 0}
    - target: {fileID: 2340539943332355997, guid: d8465d48ad2f8c444a504580131a035f,
        type: 3}
      propertyPath: m_LocalEulerAnglesHint.y
      value: 114.072
      objectReference: {fileID: 0}
    - target: {fileID: 2340539943332355997, guid: d8465d48ad2f8c444a504580131a035f,
        type: 3}
      propertyPath: m_LocalEulerAnglesHint.z
      value: 0
      objectReference: {fileID: 0}
    m_RemovedComponents: []
  m_SourcePrefab: {fileID: 100100000, guid: d8465d48ad2f8c444a504580131a035f, type: 3}
